chrVIII	0	1	0.086666667
chrXII	0	1	0.14
chrXIII	0	1	-0.886666667
chrIII	0	1	-0.5
chrVII	0	1	0.26
chrXIV	0	1	0.276666667
chrXII	1	2	-0.236666667
chrX	0	1	0.203333333
chrXII	2	3	-0.153333333
chrVI	0	1	0.113333333
chrI	0	1	-1.693333333
chrXIV	1	2	-0.69
chrXII	3	4	-1.366666667
chrXII	4	5	-0.576666667
chrXIII	1	2	-1.886666667
chrVII	1	2	-0.576666667
chrVII	2	3	-0.693333333
chrVII	3	4	-0.846666667
chrXV	0	1	0.13
chrXIII	2	3	0.033333333
chrXIII	3	4	0.226666667
chrXIII	4	5	0.8
chrX	1	2	0.286666667
chrXII	5	6	1.086666667
chrXV	1	2	-0.23
chrXV	2	3	0.93
chrV	0	1	0.04
chrXVI	0	1	0.676666667
chrX	2	3	0.026666667
chrXI	0	1	-0.456666667
chrII	0	1	0.153333333
chrII	1	2	0.146666667
chrV	1	2	0.113333333
chrVII	4	5	0.13
chrIV	0	1	0.116666667
chrIV	1	2	-0.283333333
chrVII	5	6	0.25
chrII	2	3	-0.183333333
chrXVI	1	2	0.606666667
chrVII	6	7	-0.19
chrVIII	1	2	0.59
chrX	3	4	0.076666667
chrXIII	5	6	-0.683333333
chrXVI	2	3	-0.16
chrII	3	4	0.01
chrIV	2	3	-0.316666667
chrX	4	5	-0.026666667
chrII	4	5	-0.606666667
chrIV	3	4	-0.173333333
chrIX	0	1	0.186666667
chrI	1	2	0.22
chrXV	3	4	-0.65
chrV	2	3	0.393333333
chrIV	4	5	0.37
chrXVI	3	4	0.076666667
chrXVI	4	5	0.966666667
chrXII	6	7	0.083333333
chrXI	1	2	-0.32
chrIX	1	2	-0.12
chrI	2	3	0.013333333
chrIV	5	6	-0.02
chrXVI	5	6	-0.316666667
chrXIV	2	3	-0.38
chrVII	7	8	-0.266666667
chrII	5	6	-0.183333333
chrXII	7	8	-0.023333333
chrII	6	7	0.093333333
chrX	5	6	0.213333333
chrIV	6	7	0.206666667
chrXIII	6	7	-0.166666667
chrX	6	7	0.476666667
chrI	3	4	0.06
chrVII	8	9	0.136666667
chrXIII	7	8	-0.183333333
chrVIII	2	3	-0.193333333
chrXII	8	9	0.126666667
chrVI	1	2	0.133333333
chrVIII	3	4	-0.1
chrII	7	8	-0.22
chrI	4	5	-0.223333333
chrXV	4	5	-0.316666667
chrIV	7	8	-0.316666667
chrXVI	6	7	-0.286666667
chrVIII	4	5	-0.143333333
chrIV	8	9	-0.196666667
chrVII	9	10	-0.293333333
chrVIII	5	6	-0.09
chrXVI	7	8	0.053333333
chrX	7	8	0.033333333
chrII	8	9	-0.133333333
chrXV	5	6	-0.506666667
chrXVI	8	9	-0.1
chrXVI	9	10	-0.183333333
chrXIV	3	4	0.1
chrXII	9	10	-0.1
chrVI	2	3	-0.17
chrXVI	10	11	-0.443333333
chrVIII	6	7	0.306666667
chrXIII	8	9	0.273333333
chrV	3	4	-0.133333333
chrXV	6	7	-1.016666667
chrIV	9	10	-0.13
chrXI	2	3	-0.03
chrV	4	5	-0.63
chrIII	1	2	0.296666667
chrXVI	11	12	-0.526666667
chrXV	7	8	0.226666667
chrXVI	12	13	0.066666667
chrIV	10	11	-0.396666667
chrVIII	7	8	-0.036666667
chrVII	10	11	-0.146666667
chrXIV	4	5	-0.006666667
chrIV	11	12	0.46
chrXVI	13	14	-0.57
chrXI	3	4	-0.176666667
chrXV	8	9	1.326666667
chrVIII	8	9	0.55
chrII	9	10	-0.003333333
chrIII	2	3	-0.196666667
chrIV	12	13	-0.21
chrXII	10	11	0.3
chrXV	9	10	0.3
chrXII	11	12	0.003333333
chrXIII	9	10	0.423333333
chrIV	13	14	0.326666667
chrVII	11	12	0.206666667
chrIX	2	3	0.096666667
chrX	8	9	-0.196666667
chrIII	3	4	0.25
chrXIV	5	6	1.196666667
chrXII	12	13	0.133333333
chrXIV	6	7	-0.02
chrXIII	10	11	0.086666667
chrII	10	11	-0.05
chrXIV	7	8	-0.05
chrXVI	14	15	-0.383333333
chrII	11	12	0.116666667
chrXIV	8	9	0.116666667
chrII	12	13	0.08
chrV	5	6	-1.096666667
chrIV	14	15	0.426666667
chrIV	15	16	0.13
chrV	6	7	0.236666667
chrXII	13	14	0.183333333
chrXV	10	11	0.153333333
chrXIII	11	12	0.9
chrXV	11	12	0.48
chrXII	14	15	-0.17
chrVI	3	4	0.056666667
chrX	9	10	1.1
chrII	13	14	-0.363333333
chrIV	16	17	0.453333333
chrXII	15	16	0.393333333
chrXVI	15	16	0.993333333
chrIV	17	18	0.103333333
chrII	14	15	0.103333333
chrVI	4	5	-0.356666667
chrVII	12	13	-0.31
chrV	7	8	0.04
chrIX	3	4	0.023333333
chrXIV	9	10	0.613333333
chrXV	12	13	0.383333333
chrIV	18	19	-0.56
chrXII	16	17	-0.453333333
chrXIV	10	11	-0.56
chrII	15	16	-0.22
chrXIII	12	13	-0.066666667
chrXII	17	18	-0.016666667
chrI	5	6	-0.106666667
chrVIII	9	10	0.11
chrXII	18	19	0.23
chrXIII	13	14	0.273333333
chrII	16	17	0.186666667
chrX	10	11	0.4
chrIX	4	5	-0.846666667
chrIV	19	20	-0.52
chrIV	20	21	-0.603333333
chrIV	21	22	0.096666667
chrXI	4	5	-0.766666667
chrXIV	11	12	-0.703333333
chrXIV	12	13	-0.023333333
chrXV	13	14	-0.346666667
chrX	11	12	0.213333333
chrVI	5	6	-0.413333333
chrXV	14	15	-0.44
chrVII	13	14	-0.22
chrXVI	16	17	-0.183333333
chrIV	22	23	1.023333333
chrIV	23	24	1.116666667
chrXIV	13	14	-0.203333333
chrXV	15	16	0.716666667
chrXI	5	6	-0.333333333
chrXI	6	7	-0.836666667
chrIV	24	25	0.03
chrV	8	9	-0.823333333
chrIX	5	6	0.043333333
chrVII	14	15	0.303333333
chrXI	7	8	0.343333333
chrXVI	17	18	-0.523333333
chrXII	19	20	0.106666667
chrIV	25	26	-0.42
chrXV	16	17	0.073333333
chrVII	15	16	0.67
chrIV	26	27	0.13
chrXII	20	21	-0.413333333
chrII	17	18	0.026666667
chrVIII	10	11	0.76
chrIV	27	28	0.006666667
chrV	9	10	-0.093333333
chrXIV	14	15	0.093333333
chrII	18	19	-0.066666667
chrII	19	20	-0.176666667
chrXII	21	22	0.26
chrIII	4	5	0.3
chrXVI	18	19	-0.153333333
chrVII	16	17	-0.28
chrXIII	14	15	-0.22
chrII	20	21	-0.203333333
chrIII	5	6	0.086666667
chrXIII	15	16	-0.403333333
chrVII	17	18	0.246666667
chrXI	8	9	1.1
chrV	10	11	0.023333333
chrVII	18	19	0.236666667
chrV	11	12	0.073333333
chrXV	17	18	0.693333333
chrXIII	16	17	0.226666667
chrXIII	17	18	0.136666667
chrXV	18	19	0.113333333
chrII	21	22	0.263333333
chrIV	28	29	-0.253333333
chrIV	29	30	0.496666667
chrXIV	15	16	-0.373333333
chrVII	19	20	0.11
chrII	22	23	-0.066666667
chrXV	19	20	0.093333333
chrXVI	19	20	0.15
chrXV	20	21	-0.12
chrX	12	13	0.813333333
chrIX	6	7	0.073333333
chrXV	21	22	-0.5
chrIV	30	31	-0.303333333
chrX	13	14	0.43
chrVII	20	21	0.403333333
chrII	23	24	-0.14
chrXII	22	23	-0.733333333
chrXVI	20	21	-0.58
chrVII	21	22	-0.58
chrV	12	13	-0.603333333
chrIV	31	32	-0.603333333
chrIV	32	33	-0.696666667
chrXIII	18	19	-0.696666667
chrXI	9	10	-0.706666667
chrVIII	11	12	-0.663333333
chrXII	23	24	-0.593333333
chrXIII	19	20	-0.596666667
chrIX	7	8	-0.596666667
chrXIV	16	17	-0.686666667
chrXI	10	11	-0.673333333
chrX	14	15	-0.673333333
chrXV	22	23	-0.603333333
chrXIV	17	18	-0.603333333
chrII	24	25	-0.69
chrII	25	26	-0.69
chrXVI	21	22	-0.726666667
chrVII	22	23	-0.726666667
chrXIII	20	21	-0.623333333
chrXV	23	24	-0.623333333
chrII	26	27	-1.086666667
chrXVI	22	23	-1.086666667
chrXII	24	25	-0.763333333
chrVI	6	7	-0.82
chrII	27	28	-0.68
chrV	13	14	-0.68
chrVII	23	24	-0.72
chrVII	24	25	-0.733333333
chrXV	24	25	-0.736666667
chrXII	25	26	-0.636666667
chrVII	25	26	-0.66
chrVIII	12	13	-0.726666667
chrIV	33	34	-0.726666667
chrVII	26	27	-0.693333333
chrVI	7	8	-0.546666667
chrIX	8	9	-0.546666667
chrXV	25	26	-0.62
chrVII	27	28	-0.64
chrIV	34	35	-0.77
chrXII	26	27	-0.77
chrII	28	29	-0.666666667
chrXVI	23	24	-0.73
chrXV	26	27	-0.473333333
chrV	14	15	-0.68
chrIX	9	10	-0.68
chrIV	35	36	-0.776666667
chrIV	36	37	-0.776666667
chrXII	27	28	-1.026666667
chrIV	37	38	-1.14
chrXII	28	29	-0.646666667
chrIX	10	11	0.206666667
chrXI	11	12	0.206666667
chrII	29	30	-0.703333333
chrIV	38	39	-0.703333333
chrXVI	24	25	-0.653333333
chrXIII	21	22	-0.82
chrXII	29	30	-0.686666667
chrVII	28	29	-0.72
chrXVI	25	26	-0.72
chrVIII	13	14	-0.756666667
chrXII	30	31	-0.703333333
chrVII	29	30	-0.69
chrXIV	18	19	-0.693333333
chrVIII	14	15	-0.156666667
chrVI	8	9	0.393333333
chrXII	31	32	-0.73
chrIV	39	40	-0.386666667
chrXV	27	28	-0.576666667
chrIV	40	41	-0.916666667
chrXV	28	29	-0.696666667
chrXIII	22	23	-0.696666667
chrIV	41	42	-0.49
chrII	30	31	-0.49
chrXV	29	30	-0.666666667
chrIV	42	43	-0.566666667
chrIII	6	7	-0.443333333
chrX	15	16	-0.443333333
chrXV	30	31	-0.763333333
chrXIII	23	24	-0.636666667
chrIV	43	44	-0.636666667
chrXIII	24	25	-0.58
chrIV	44	45	-0.58
chrIV	45	46	-0.496666667
chrXIII	25	26	-0.496666667
chrXV	31	32	-0.59
chrXIV	19	20	-0.59
chrXII	32	33	-0.473333333
chrXIII	26	27	-0.616666667
chrVII	30	31	-0.596666667
chrVIII	15	16	-0.65
chrXI	12	13	-0.75
chrX	16	17	-0.75
chrX	17	18	-0.576666667
chrXII	33	34	-0.586666667
chrVII	31	32	-0.663333333
chrXVI	26	27	-0.663333333
chrV	15	16	-0.533333333
chrIX	11	12	-0.533333333
chrVII	32	33	-0.77
chrXII	34	35	-0.77
chrVII	33	34	-0.26
chrXII	35	36	-0.71
chrXIV	20	21	-0.526666667
chrXII	36	37	0.053333333
chrX	18	19	-0.55
chrVIII	16	17	-0.55
chrX	19	20	-0.673333333
chrXVI	27	28	-0.596666667
chrII	31	32	-0.596666667
chrXV	32	33	-0.62
chrXIV	21	22	-0.56
chrII	32	33	-0.59
chrV	16	17	-0.59
chrXVI	28	29	-0.57
chrII	33	34	-0.59
chrXI	13	14	-0.233333333
chrVIII	17	18	-0.676666667
chrIV	46	47	0.26
chrV	17	18	0.036666667
chrXI	14	15	0.183333333
chrVIII	18	19	-0.373333333
chrX	20	21	-0.23
chrXVI	29	30	-0.046666667
chrIV	47	48	-0.263333333
chrVI	9	10	-0.243333333
chrIV	48	49	-0.323333333
chrIV	49	50	0.82
chrII	34	35	-0.24
chrXII	37	38	-0.943333333
chrXIV	22	23	-0.146666667
chrIV	50	51	0.266666667
chrX	21	22	0.396666667
chrVIII	19	20	-0.076666667
chrXVI	30	31	0.453333333
chrXIV	23	24	0.273333333
chrI	6	7	0.313333333
chrXII	38	39	0.27
chrII	35	36	0.283333333
chrV	18	19	0.14
chrIV	51	52	-0.256666667
chrXIV	24	25	-0.256666667
chrX	22	23	-0.006666667
chrXVI	31	32	0.54
chrII	36	37	0.03
chrVIII	20	21	0.033333333
chrXV	33	34	0.556666667
chrXII	39	40	0.006666667
chrXIII	27	28	0.153333333
chrIV	52	53	-0.213333333
chrX	23	24	-0.26
chrXII	40	41	0.036666667
chrVII	34	35	-0.246666667
chrX	24	25	-0.476666667
chrX	25	26	-0.056666667
chrVII	35	36	0.086666667
chrXI	15	16	-0.083333333
chrIII	7	8	0.14
chrIX	12	13	-0.206666667
chrXI	16	17	0.13
chrXIII	28	29	-0.206666667
chrX	26	27	0.13
chrXVI	32	33	0.193333333
chrXVI	33	34	0.106666667
chrXVI	34	35	-0.086666667
chrIV	53	54	-1.143333333
chrXI	17	18	0.37
chrIV	54	55	0.093333333
chrXIV	25	26	-0.23
chrIV	55	56	0.083333333
chrXI	18	19	0.32
chrVII	36	37	-0.023333333
chrXII	41	42	-0.233333333
chrVII	37	38	0.066666667
chrXIII	29	30	0.266666667
chrXIII	30	31	0.15
chrXIII	31	32	-0.293333333
chrXIII	32	33	-0.293333333
chrXV	34	35	-0.08
chrVII	38	39	-0.036666667
chrXI	19	20	0.17
chrXII	42	43	0.206666667
chrVI	10	11	0.116666667
chrVII	39	40	-0.306666667
chrXI	20	21	-0.136666667
chrXI	21	22	-0.253333333
chrX	27	28	-0.38
chrVII	40	41	0.03
chrIV	56	57	-0.276666667
chrVIII	21	22	-0.656666667
chrXVI	35	36	0.176666667
chrII	37	38	-0.36
chrXV	35	36	-0.33
chrXV	36	37	0.233333333
chrI	7	8	0.033333333
chrII	38	39	0.52
chrXIV	26	27	0.396666667
chrIV	57	58	0.603333333
chrIV	58	59	0.066666667
chrXII	43	44	0.013333333
chrV	19	20	0.253333333
chrXIV	27	28	0.66
chrVIII	22	23	0.09
chrXIII	33	34	0.583333333
chrXIII	34	35	-0.076666667
chrXIII	35	36	-0.053333333
chrXIII	36	37	0.186666667
chrXI	22	23	-0.47
chrXIV	28	29	0.15
chrXIV	29	30	0.066666667
chrXIV	30	31	-0.026666667
chrXIV	31	32	-1
chrXVI	36	37	0.036666667
chrXVI	37	38	0.383333333
chrIV	59	60	-0.01
chrIV	60	61	0.23
chrXV	37	38	0.2
chrVII	41	42	-0.016666667
chrXIV	32	33	0.49
